[
    {
        "id": 1,
        "name": "Garcher",
        "des": "Forajido que busca venganza por la muerte de sus padres",
        "clase": "Ejecutor",
        "img": "Actor1",
        "stats": [120,120,120,120,500,100]
    },
    {
        "id": 2,
        "name": "Chellviel",
        "des": "Caballero de la orden de plata y futuro rey del imperio",
        "clase": "Caballero",
        "img": "Actor2",
        "stats": [120,120,120,120,500,100]
    },
    {
        "id": 3,
        "name": "Elichris",
        "des": "Caballero descendiente del linaje de los dragones",
        "clase": "Lancero",
        "img": "Actor3",
        "stats": [120,120,120,120,500,100]
    },
    {
        "id": 4,
        "name": "Rionnas",
        "des": "Tímida aventurera proveniente del reino Élfico",
        "clase": "Arquero",
        "img": "Actor4",
        "stats": [120,120,120,120,500,100]
    },
    {
        "id": 5,
        "name": "Nile",
        "des": "Hija mayor del ducado proveniente del hermano del rey",
        "clase": "Lord",
        "img": "Actor5",
        "stats": [120,120,120,120,500,100]
    },
    {
        "id": 6,
        "name": "Georseph",
        "des": "Viajero en el tiempo, se dice que viene de Japón :V",
        "clase": "Normie",
        "img": "Actor6",
        "stats": [120,120,120,120,500,100]
    },
    {
        "id": 7,
        "name": "Milei",
        "des": "Aventurera que forjo su propio destino gracias a su katana",
        "clase": "Samurai",
        "img": "Actor7",
        "stats": [120,120,120,120,500,100]
    },
    {
        "id": 8,
        "name": "Aiko",
        "des": "Hija de una importante familia de vampiros",
        "clase": "Vampiro",
        "img": "Actor8",
        "stats": [120,120,120,120,500,100]
    },
    {
        "id": 9,
        "name": "Alriel",
        "des": "???",
        "clase": "???",
        "img": "Actor9",
        "stats": [120,120,120,120,500,100]
    }
]